{
	"editor": {
		"allAngles": false,
		"entityTextureMode": false
	},
	"textureWidth": 16,
	"textureHeight": 16,
	"textureSizes": {
		"1": [32,32]
	},
	"textures": {
		"1":"xmelee_steel"
	},
	"elements": [
		{
			"name": "s.064",
			"from": [ 1.1808, -0.6228, 7.8969 ], 
			"to": [ 26.1331, 0.6228, 8.1031 ], 
			"rotationOrigin": [ 13.6569, 0.0, 8.0 ],
			"faces": {
				"north": { "texture": "#1", "uv": [ 27.0, 25.0, 4.0, 27.0 ], "autoUv": false },
				"east": { "texture": "#1", "uv": [ 31.0, 23.0, 29.0, 25.0 ], "autoUv": false },
				"south": { "texture": "#1", "uv": [ 27.0, 25.0, 4.0, 27.0 ], "autoUv": false },
				"west": { "texture": "#1", "uv": [ 31.0, 23.0, 29.0, 25.0 ], "autoUv": false },
				"up": { "texture": "#1", "uv": [ 27.0, 24.0, 4.0, 25.0 ], "rotation": 180, "autoUv": false },
				"down": { "texture": "#1", "uv": [ 27.0, 24.0, 4.0, 25.0 ], "rotation": 180, "autoUv": false }
			}
		},
		{
			"name": "s.066",
			"from": [ -0.4986, 0.3177, 7.9085 ], 
			"to": [ -0.0905, 1.1791, 8.0915 ], 
			"rotationOrigin": [ -0.2946, 0.7484, 8.0 ],
			"rotationZ": -8.04767807353034,
			"faces": {
				"north": { "texture": "#1", "uv": [ 15.0, 17.0, 13.0, 19.0 ], "rotation": 270, "autoUv": false },
				"east": { "texture": "#1", "uv": [ 15.0, 17.0, 13.0, 19.0 ], "rotation": 270, "autoUv": false },
				"south": { "texture": "#1", "uv": [ 15.0, 17.0, 13.0, 19.0 ], "rotation": 90, "autoUv": false },
				"west": { "texture": "#1", "uv": [ 15.0, 17.0, 13.0, 19.0 ], "rotation": 270, "autoUv": false },
				"up": { "texture": "#1", "uv": [ 15.0, 17.0, 13.0, 19.0 ], "rotation": 90, "autoUv": false },
				"down": { "texture": "#1", "uv": [ 15.0, 17.0, 13.0, 19.0 ], "rotation": 90, "autoUv": false }
			}
		},
		{
			"name": "s.067",
			"from": [ -4.9756, -0.4511, 7.8178 ], 
			"to": [ 1.3605, 0.4511, 8.1822 ], 
			"rotationOrigin": [ -1.8075, 0.0, 8.0 ],
			"faces": {
				"north": { "texture": "#1", "uv": [ 24.0, 24.0, 7.0, 26.0 ], "autoUv": false },
				"east": { "texture": "#1", "uv": [ 24.0, 23.0, 7.0, 25.0 ], "autoUv": false },
				"south": { "texture": "#1", "uv": [ 24.0, 24.0, 7.0, 26.0 ], "autoUv": false },
				"west": { "texture": "#1", "uv": [ 24.0, 23.0, 7.0, 25.0 ], "autoUv": false },
				"up": { "texture": "#1", "uv": [ 24.0, 24.0, 4.0, 25.0 ], "rotation": 180, "autoUv": false },
				"down": { "texture": "#1", "uv": [ 24.0, 24.0, 4.0, 25.0 ], "rotation": 180, "autoUv": false }
			}
		},
		{
			"name": "s.078",
			"from": [ 25.6927, -0.4404, 7.9237 ], 
			"to": [ 26.5734, 0.4404, 8.0763 ], 
			"rotationOrigin": [ 26.1331, 0.0, 8.0 ],
			"rotationZ": 45.00000125223908,
			"faces": {
				"north": { "texture": "#1", "uv": [ 21.0, 25.0, 19.0, 27.0 ], "autoUv": false },
				"east": { "texture": "#1", "uv": [ 31.0, 24.0, 30.0, 25.0 ], "autoUv": false },
				"south": { "texture": "#1", "uv": [ 27.0, 25.0, 25.0, 27.0 ], "rotation": 90, "autoUv": false },
				"west": { "texture": "#1", "uv": [ 31.0, 24.0, 30.0, 25.0 ], "autoUv": false },
				"up": { "texture": "#1", "uv": [ 31.0, 24.0, 30.0, 25.0 ], "rotation": 180, "autoUv": false },
				"down": { "texture": "#1", "uv": [ 31.0, 24.0, 30.0, 25.0 ], "rotation": 180, "autoUv": false }
			}
		},
		{
			"name": "s.079",
			"from": [ -0.2665, 1.0333, 7.9303 ], 
			"to": [ 3.0E-4, 1.5342, 8.0697 ], 
			"rotationOrigin": [ -0.1331, 1.2838, 8.0 ],
			"rotationZ": -38.13128640021288,
			"faces": {
				"north": { "texture": "#1", "uv": [ 15.0, 17.0, 13.0, 19.0 ], "rotation": 270, "autoUv": false },
				"east": { "texture": "#1", "uv": [ 15.0, 17.0, 13.0, 19.0 ], "rotation": 270, "autoUv": false },
				"south": { "texture": "#1", "uv": [ 15.0, 17.0, 13.0, 19.0 ], "rotation": 90, "autoUv": false },
				"west": { "texture": "#1", "uv": [ 15.0, 17.0, 13.0, 19.0 ], "rotation": 270, "autoUv": false },
				"up": { "texture": "#1", "uv": [ 15.0, 17.0, 13.0, 19.0 ], "rotation": 90, "autoUv": false },
				"down": { "texture": "#1", "uv": [ 15.0, 17.0, 13.0, 19.0 ], "rotation": 90, "autoUv": false }
			}
		},
		{
			"name": "s.080",
			"from": [ -0.4986, -1.1791, 7.9085 ], 
			"to": [ -0.0905, -0.3177, 8.0915 ], 
			"rotationOrigin": [ -0.2946, -0.7484, 8.0 ],
			"rotationZ": 8.047697710324204,
			"faces": {
				"north": { "texture": "#1", "uv": [ 15.0, 17.0, 13.0, 19.0 ], "rotation": 90, "autoUv": false },
				"east": { "texture": "#1", "uv": [ 15.0, 17.0, 13.0, 19.0 ], "rotation": 270, "autoUv": false },
				"south": { "texture": "#1", "uv": [ 15.0, 17.0, 13.0, 19.0 ], "rotation": 270, "autoUv": false },
				"west": { "texture": "#1", "uv": [ 15.0, 17.0, 13.0, 19.0 ], "rotation": 270, "autoUv": false },
				"up": { "texture": "#1", "uv": [ 15.0, 17.0, 13.0, 19.0 ], "rotation": 270, "autoUv": false },
				"down": { "texture": "#1", "uv": [ 15.0, 17.0, 13.0, 19.0 ], "rotation": 270, "autoUv": false }
			}
		},
		{
			"name": "s.081",
			"from": [ -0.2665, -1.5342, 7.9303 ], 
			"to": [ 3.0E-4, -1.0333, 8.0697 ], 
			"rotationOrigin": [ -0.1331, -1.2838, 8.0 ],
			"rotationZ": 38.13099953226774,
			"faces": {
				"north": { "texture": "#1", "uv": [ 15.0, 17.0, 13.0, 19.0 ], "rotation": 90, "autoUv": false },
				"east": { "texture": "#1", "uv": [ 15.0, 17.0, 13.0, 19.0 ], "rotation": 270, "autoUv": false },
				"south": { "texture": "#1", "uv": [ 15.0, 17.0, 13.0, 19.0 ], "rotation": 270, "autoUv": false },
				"west": { "texture": "#1", "uv": [ 15.0, 17.0, 13.0, 19.0 ], "rotation": 270, "autoUv": false },
				"up": { "texture": "#1", "uv": [ 15.0, 17.0, 13.0, 19.0 ], "rotation": 270, "autoUv": false },
				"down": { "texture": "#1", "uv": [ 15.0, 17.0, 13.0, 19.0 ], "rotation": 270, "autoUv": false }
			}
		}
	]}