{
	ingredientPattern: "T,S",
	ingredients: {
		"T": { type: "item", code: "xrapierhead-*", name: "material"  },
		"S": { type: "item", code: "xweapongrip-*", name: "material" }
	},
	width: 1,
	height: 2,
	output: { type: "item", code: "xrapier-{material}", quantity: 1  }
}