{
	code: "xhalberd",
	class: "ItemPolearm",
	damagedby: ["attacking"],
	tool: "spear",
	variantgroups: [
		{ code: "material", states: ["iron", "meteoriciron", "steel"] }
	],
	shapeByType: {
		"*": { base: "xeth_halberd" }
	},
	heldTpHitAnimation: "spearhit",
	texturesByType: {
		"*": {
			"1": { base: "xmelee_{material}" }
		}
	},
	attackRange: 4.5,
	attackpowerbytype: {
		"*-iron": 6.0,
		"*-meteoriciron": 6.5,
		"*-steel": 7.0
	},
	tooltierbytype: {
		"*-iron": 4,
		"*-meteoriciron": 4,
		"*-steel": 5
	},
	durabilitybytype: {
		"*-iron": 850,
		"*-meteoriciron": 1400,
		"*-steel": 2400
	},
	attributes: {
		canAttackWithShield: false,
		canParryWithShield: false,
		attackDelay: 0.45,
		attackWindow: 0.9,
		attackTime: 1.0,
		attackWalkspeed: -1.0,
		parryDelay: 0.05,
		parryWindow: 0.6,
		parryTime: 0.7,
		parryWalkspeed: -0.4,
		stunnedTime: 1.1,
		handbook: {
			groupBy: ["spear-*"]
		},
		toolrackTransformByType: {
			"*": {
				rotation: { x: 90, y: 0, z: -1 },
				translation: { x: -0.1, y: 0.013, z: 0.75 },
				scale: 1.5
			}
		}
	},
	creativeinventory: { "general": ["*"], "items": ["*"], "tools": ["*"] },
	guiTransformByType: {
		"*": {
			translation: { x: 0.0, y: 0.0, z: 0.0 },
			rotation: { x: 0, y: 0, z: -45 },
			origin: { x: 2.9, y: 0.0, z: 0.0 },
			scale: 1.2
		}
	},
	fpHandTransform: {
		translation: { x: 0.3, y: 0.5, z: 0.16 },
		rotation: { x: -82, y: 90, z: 85 },
		origin: { x: 0.5, y: 0, z: 0.5 },
		scale: 2.45
	},
	groundTransformByType: {
		"*": {
			translation: { x: 0.0, y: 0.03, z: 0 },
			rotation: { x: 90, y: 0, z: 0 },
			origin: { x: 1.0, y: 0, z: 0.5 },
			scale: 6.0
		}
	},
	tpHandTransformByType: {
		"*": {
			translation: { x: -0.33, y: 0.06, z: -0.65 },
			rotation: { x: 5.0, y: 9.0, z: -3.0 },
			origin: { x: 0.5, y: 0, z: 0.5 },
			scale: 0.8
		}
	}
}