{
	"editor": {
		"allAngles": false,
		"entityTextureMode": false
	},
	"textureWidth": 16,
	"textureHeight": 16,
	"textureSizes": {
		"1": [32,32]
	},
	"textures":{
		"1":"xmelee_steel"
	},
	"elements": [
		{
			"name": "s.046",
			"from": [ 9.4339, -0.473, 7.8969 ], 
			"to": [ 38.2045, 0.473, 8.1031 ], 
			"rotationOrigin": [ 23.8192, 0.0, 8.0 ],
			"faces": {
				"north": { "texture": "#1", "uv": [ 27.0, 25.0, 2.0, 27.0 ], "autoUv": false },
				"east": { "texture": "#1", "uv": [ 31.0, 23.0, 29.0, 25.0 ], "autoUv": false },
				"south": { "texture": "#1", "uv": [ 27.0, 25.0, 2.0, 27.0 ], "autoUv": false },
				"west": { "texture": "#1", "uv": [ 31.0, 23.0, 29.0, 25.0 ], "autoUv": false },
				"up": { "texture": "#1", "uv": [ 27.0, 24.0, 2.0, 25.0 ], "rotation": 180, "autoUv": false },
				"down": { "texture": "#1", "uv": [ 27.0, 24.0, 2.0, 25.0 ], "rotation": 180, "autoUv": false }
			}
		},
		{
			"name": "s.047",
			"from": [ 0.9504, -0.5233, 7.4767 ], 
			"to": [ 9.333, 0.5233, 8.5233 ], 
			"rotationOrigin": [ 5.1417, 0.0, 8.0 ],
			"faces": {
				"north": { "texture": "#1", "uv": [ 28.0, 29.0, 4.0, 31.0 ], "autoUv": false },
				"east": { "texture": "#1", "uv": [ 7.0, 29.0, 5.0, 31.0 ], "autoUv": false },
				"south": { "texture": "#1", "uv": [ 4.0, 29.0, 28.0, 31.0 ], "autoUv": false },
				"west": { "texture": "#1", "uv": [ 7.0, 29.0, 5.0, 31.0 ], "autoUv": false },
				"up": { "texture": "#1", "uv": [ 28.0, 29.0, 4.0, 31.0 ], "rotation": 180, "autoUv": false },
				"down": { "texture": "#1", "uv": [ 28.0, 29.0, 4.0, 31.0 ], "rotation": 180, "autoUv": false }
			}
		},
		{
			"name": "p.004",
			"from": [ 0.7441, -0.7049, 7.2951 ], 
			"to": [ 1.4296, 0.7049, 8.7049 ], 
			"rotationOrigin": [ 1.0868, 0.0, 8.0 ],
			"faces": {
				"north": { "texture": "#1", "uv": [ 3.0, 20.0, 7.0, 22.0 ], "rotation": 270, "autoUv": false },
				"east": { "texture": "#1", "uv": [ 7.0, 20.0, 3.0, 22.0 ], "rotation": 90, "autoUv": false },
				"south": { "texture": "#1", "uv": [ 3.0, 20.0, 7.0, 22.0 ], "rotation": 270, "autoUv": false },
				"west": { "texture": "#1", "uv": [ 7.0, 20.0, 3.0, 22.0 ], "rotation": 90, "autoUv": false },
				"up": { "texture": "#1", "uv": [ 7.0, 20.0, 3.0, 22.0 ], "rotation": 270, "autoUv": false },
				"down": { "texture": "#1", "uv": [ 7.0, 20.0, 3.0, 22.0 ], "rotation": 270, "autoUv": false }
			}
		},
		{
			"name": "s.050",
			"from": [ 9.2406, -3.5965, 7.786 ], 
			"to": [ 9.6153, 3.5965, 8.214 ], 
			"rotationOrigin": [ 9.4279, 0.0, 8.0 ],
			"faces": {
				"north": { "texture": "#1", "uv": [ 3.0, 29.0, 1.0, 31.0 ], "autoUv": false },
				"east": { "texture": "#1", "uv": [ 3.0, 29.0, 1.0, 31.0 ], "autoUv": false },
				"south": { "texture": "#1", "uv": [ 3.0, 29.0, 1.0, 31.0 ], "autoUv": false },
				"west": { "texture": "#1", "uv": [ 3.0, 29.0, 1.0, 31.0 ], "autoUv": false },
				"up": { "texture": "#1", "uv": [ 3.0, 29.0, 1.0, 31.0 ], "rotation": 180, "autoUv": false },
				"down": { "texture": "#1", "uv": [ 3.0, 29.0, 1.0, 31.0 ], "rotation": 180, "autoUv": false }
			}
		},
		{
			"name": "s.054",
			"from": [ 9.1473, -0.6317, 7.3753 ], 
			"to": [ 9.522, 0.6317, 8.6247 ], 
			"rotationOrigin": [ 9.3346, 0.0, 8.0 ],
			"faces": {
				"north": { "texture": "#1", "uv": [ 3.0, 29.0, 1.0, 31.0 ], "rotation": 180, "autoUv": false },
				"east": { "texture": "#1", "uv": [ 3.0, 29.0, 1.0, 31.0 ], "rotation": 180, "autoUv": false },
				"south": { "texture": "#1", "uv": [ 3.0, 29.0, 1.0, 31.0 ], "rotation": 180, "autoUv": false },
				"west": { "texture": "#1", "uv": [ 3.0, 29.0, 1.0, 31.0 ], "rotation": 180, "autoUv": false },
				"up": { "texture": "#1", "uv": [ 3.0, 29.0, 1.0, 31.0 ], "rotation": 180, "autoUv": false },
				"down": { "texture": "#1", "uv": [ 3.0, 29.0, 1.0, 31.0 ], "rotation": 180, "autoUv": false }
			}
		},
		{
			"name": "s.052",
			"from": [ 9.1359, 3.2226, 7.7361 ], 
			"to": [ 9.72, 3.7745, 8.2639 ], 
			"rotationOrigin": [ 9.4279, 3.4985, 8.0 ],
			"faces": {
				"north": { "texture": "#1", "uv": [ 3.0, 29.0, 1.0, 31.0 ], "autoUv": false },
				"east": { "texture": "#1", "uv": [ 3.0, 29.0, 1.0, 31.0 ], "autoUv": false },
				"south": { "texture": "#1", "uv": [ 3.0, 29.0, 1.0, 31.0 ], "autoUv": false },
				"west": { "texture": "#1", "uv": [ 3.0, 29.0, 1.0, 31.0 ], "autoUv": false },
				"up": { "texture": "#1", "uv": [ 3.0, 29.0, 1.0, 31.0 ], "rotation": 180, "autoUv": false },
				"down": { "texture": "#1", "uv": [ 3.0, 29.0, 1.0, 31.0 ], "rotation": 180, "autoUv": false }
			}
		},
		{
			"name": "s.059",
			"from": [ 9.1359, -3.7745, 7.7361 ], 
			"to": [ 9.72, -3.2226, 8.2639 ], 
			"rotationOrigin": [ 9.4279, -3.4985, 8.0 ],
			"faces": {
				"north": { "texture": "#1", "uv": [ 3.0, 29.0, 1.0, 31.0 ], "autoUv": false },
				"east": { "texture": "#1", "uv": [ 3.0, 29.0, 1.0, 31.0 ], "autoUv": false },
				"south": { "texture": "#1", "uv": [ 3.0, 29.0, 1.0, 31.0 ], "autoUv": false },
				"west": { "texture": "#1", "uv": [ 3.0, 29.0, 1.0, 31.0 ], "autoUv": false },
				"up": { "texture": "#1", "uv": [ 3.0, 29.0, 1.0, 31.0 ], "rotation": 180, "autoUv": false },
				"down": { "texture": "#1", "uv": [ 3.0, 29.0, 1.0, 31.0 ], "rotation": 180, "autoUv": false }
			}
		},
		{
			"name": "s.060",
			"from": [ 37.8701, -0.3345, 7.922 ], 
			"to": [ 38.539, 0.3345, 8.078 ], 
			"rotationOrigin": [ 38.2045, 0.0, 8.0 ],
			"rotationZ": 45.00000125223908,
			"faces": {
				"north": { "texture": "#1", "uv": [ 27.0, 25.0, 25.0, 27.0 ], "autoUv": false },
				"east": { "texture": "#1", "uv": [ 31.0, 24.0, 30.0, 25.0 ], "autoUv": false },
				"south": { "texture": "#1", "uv": [ 27.0, 25.0, 25.0, 27.0 ], "autoUv": false },
				"west": { "texture": "#1", "uv": [ 31.0, 23.0, 29.0, 25.0 ], "autoUv": false },
				"up": { "texture": "#1", "uv": [ 27.0, 24.0, 25.0, 25.0 ], "rotation": 180, "autoUv": false },
				"down": { "texture": "#1", "uv": [ 27.0, 24.0, 25.0, 25.0 ], "rotation": 180, "autoUv": false }
			}
		},
		{
			"name": "r.056",
			"from": [ 9.2506, 1.229, 6.7847 ], 
			"to": [ 9.6316, 1.529, 7.2598 ], 
			"rotationOrigin": [ 9.4411, 1.379, 7.0222 ],
			"faces": {
				"north": { "texture": "#1", "uv": [ 1.0, 29.0, 3.0, 31.0 ], "rotation": 270, "autoUv": false },
				"east": { "texture": "#1", "uv": [ 3.0, 29.0, 1.0, 31.0 ], "rotation": 90, "autoUv": false },
				"south": { "texture": "#1", "uv": [ 1.0, 29.0, 3.0, 31.0 ], "rotation": 270, "autoUv": false },
				"west": { "texture": "#1", "uv": [ 3.0, 29.0, 1.0, 31.0 ], "rotation": 90, "autoUv": false },
				"up": { "texture": "#1", "uv": [ 3.0, 29.0, 1.0, 31.0 ], "rotation": 270, "autoUv": false },
				"down": { "texture": "#1", "uv": [ 3.0, 29.0, 1.0, 31.0 ], "rotation": 270, "autoUv": false }
			}
		},
		{
			"name": "r.057",
			"from": [ 9.2824, 0.9801, 6.1836 ], 
			"to": [ 9.5999, 1.2801, 7.0121 ], 
			"rotationOrigin": [ 9.4411, 1.1301, 6.5978 ],
			"rotationX": -45.00000125223908,
			"faces": {
				"north": { "texture": "#1", "uv": [ 1.0, 29.0, 3.0, 31.0 ], "rotation": 270, "autoUv": false },
				"east": { "texture": "#1", "uv": [ 3.0, 29.0, 1.0, 31.0 ], "rotation": 90, "autoUv": false },
				"south": { "texture": "#1", "uv": [ 1.0, 29.0, 3.0, 31.0 ], "rotation": 270, "autoUv": false },
				"west": { "texture": "#1", "uv": [ 3.0, 29.0, 1.0, 31.0 ], "rotation": 90, "autoUv": false },
				"up": { "texture": "#1", "uv": [ 3.0, 29.0, 1.0, 31.0 ], "rotation": 270, "autoUv": false },
				"down": { "texture": "#1", "uv": [ 3.0, 29.0, 1.0, 31.0 ], "rotation": 270, "autoUv": false }
			}
		},
		{
			"name": "r.058",
			"from": [ 9.2506, -0.9433, 6.1989 ], 
			"to": [ 9.6316, 0.9433, 6.4989 ], 
			"rotationOrigin": [ 9.4411, 0.0, 6.3489 ],
			"rotationX": 6.830189170012751E-6,
			"faces": {
				"north": { "texture": "#1", "uv": [ 3.0, 29.0, 1.0, 31.0 ], "rotation": 90, "autoUv": false },
				"east": { "texture": "#1", "uv": [ 3.0, 29.0, 1.0, 31.0 ], "rotation": 180, "autoUv": false },
				"south": { "texture": "#1", "uv": [ 3.0, 29.0, 1.0, 31.0 ], "rotation": 270, "autoUv": false },
				"west": { "texture": "#1", "uv": [ 3.0, 29.0, 1.0, 31.0 ], "autoUv": false },
				"up": { "texture": "#1", "uv": [ 1.0, 29.0, 3.0, 31.0 ], "rotation": 270, "autoUv": false },
				"down": { "texture": "#1", "uv": [ 1.0, 29.0, 3.0, 31.0 ], "rotation": 90, "autoUv": false }
			}
		},
		{
			"name": "r.059",
			"from": [ 9.2824, -1.5443, 6.4478 ], 
			"to": [ 9.5999, -0.7159, 6.7478 ], 
			"rotationOrigin": [ 9.4411, -1.1301, 6.5978 ],
			"rotationX": -44.999994422049916,
			"faces": {
				"north": { "texture": "#1", "uv": [ 3.0, 29.0, 1.0, 31.0 ], "rotation": 90, "autoUv": false },
				"east": { "texture": "#1", "uv": [ 3.0, 29.0, 1.0, 31.0 ], "rotation": 180, "autoUv": false },
				"south": { "texture": "#1", "uv": [ 3.0, 29.0, 1.0, 31.0 ], "rotation": 270, "autoUv": false },
				"west": { "texture": "#1", "uv": [ 3.0, 29.0, 1.0, 31.0 ], "autoUv": false },
				"up": { "texture": "#1", "uv": [ 1.0, 29.0, 3.0, 31.0 ], "rotation": 270, "autoUv": false },
				"down": { "texture": "#1", "uv": [ 1.0, 29.0, 3.0, 31.0 ], "rotation": 90, "autoUv": false }
			}
		},
		{
			"name": "r.060",
			"from": [ 9.2506, -1.529, 6.7847 ], 
			"to": [ 9.6316, -1.229, 7.2598 ], 
			"rotationOrigin": [ 9.4411, -1.379, 7.0222 ],
			"rotationX": -1.3660378340025502E-5,
			"faces": {
				"north": { "texture": "#1", "uv": [ 1.0, 29.0, 3.0, 31.0 ], "rotation": 90, "autoUv": false },
				"east": { "texture": "#1", "uv": [ 3.0, 29.0, 1.0, 31.0 ], "rotation": 270, "autoUv": false },
				"south": { "texture": "#1", "uv": [ 1.0, 29.0, 3.0, 31.0 ], "rotation": 90, "autoUv": false },
				"west": { "texture": "#1", "uv": [ 3.0, 29.0, 1.0, 31.0 ], "rotation": 270, "autoUv": false },
				"up": { "texture": "#1", "uv": [ 3.0, 29.0, 1.0, 31.0 ], "rotation": 270, "autoUv": false },
				"down": { "texture": "#1", "uv": [ 3.0, 29.0, 1.0, 31.0 ], "rotation": 270, "autoUv": false }
			}
		},
		{
			"name": "r.061",
			"from": [ 9.2824, -1.5443, 7.2966 ], 
			"to": [ 9.5999, -0.7159, 7.5966 ], 
			"rotationOrigin": [ 9.4411, -1.1301, 7.4466 ],
			"rotationX": 44.999994422049916,
			"faces": {
				"north": { "texture": "#1", "uv": [ 3.0, 29.0, 1.0, 31.0 ], "rotation": 90, "autoUv": false },
				"east": { "texture": "#1", "uv": [ 3.0, 29.0, 1.0, 31.0 ], "autoUv": false },
				"south": { "texture": "#1", "uv": [ 3.0, 29.0, 1.0, 31.0 ], "rotation": 270, "autoUv": false },
				"west": { "texture": "#1", "uv": [ 3.0, 29.0, 1.0, 31.0 ], "rotation": 180, "autoUv": false },
				"up": { "texture": "#1", "uv": [ 1.0, 29.0, 3.0, 31.0 ], "rotation": 90, "autoUv": false },
				"down": { "texture": "#1", "uv": [ 1.0, 29.0, 3.0, 31.0 ], "rotation": 270, "autoUv": false }
			}
		},
		{
			"name": "r.062",
			"from": [ 9.2824, 0.9801, 7.0324 ], 
			"to": [ 9.5999, 1.2801, 7.8608 ], 
			"rotationOrigin": [ 9.4411, 1.1301, 7.4466 ],
			"rotationX": 45.00000466733367,
			"faces": {
				"north": { "texture": "#1", "uv": [ 1.0, 29.0, 3.0, 31.0 ], "rotation": 270, "autoUv": false },
				"east": { "texture": "#1", "uv": [ 3.0, 29.0, 1.0, 31.0 ], "rotation": 90, "autoUv": false },
				"south": { "texture": "#1", "uv": [ 1.0, 29.0, 3.0, 31.0 ], "rotation": 270, "autoUv": false },
				"west": { "texture": "#1", "uv": [ 3.0, 29.0, 1.0, 31.0 ], "rotation": 90, "autoUv": false },
				"up": { "texture": "#1", "uv": [ 3.0, 29.0, 1.0, 31.0 ], "rotation": 270, "autoUv": false },
				"down": { "texture": "#1", "uv": [ 3.0, 29.0, 1.0, 31.0 ], "rotation": 270, "autoUv": false }
			}
		},
		{
			"name": "r.063",
			"from": [ 9.2506, -0.9433, 7.5456 ], 
			"to": [ 9.6316, 0.9433, 7.8456 ], 
			"rotationOrigin": [ 9.4411, 0.0, 7.6956 ],
			"rotationX": 6.830189170012751E-6,
			"faces": {
				"north": { "texture": "#1", "uv": [ 3.0, 29.0, 1.0, 31.0 ], "rotation": 90, "autoUv": false },
				"east": { "texture": "#1", "uv": [ 3.0, 29.0, 1.0, 31.0 ], "rotation": 180, "autoUv": false },
				"south": { "texture": "#1", "uv": [ 3.0, 29.0, 1.0, 31.0 ], "rotation": 270, "autoUv": false },
				"west": { "texture": "#1", "uv": [ 3.0, 29.0, 1.0, 31.0 ], "autoUv": false },
				"up": { "texture": "#1", "uv": [ 1.0, 29.0, 3.0, 31.0 ], "rotation": 270, "autoUv": false },
				"down": { "texture": "#1", "uv": [ 1.0, 29.0, 3.0, 31.0 ], "rotation": 90, "autoUv": false }
			}
		},
		{
			"name": "r.064",
			"from": [ 9.2506, 1.229, 8.7402 ], 
			"to": [ 9.6316, 1.529, 9.2153 ], 
			"rotationOrigin": [ 9.4411, 1.379, 8.9778 ],
			"faces": {
				"north": { "texture": "#1", "uv": [ 1.0, 29.0, 3.0, 31.0 ], "rotation": 270, "autoUv": false },
				"east": { "texture": "#1", "uv": [ 3.0, 29.0, 1.0, 31.0 ], "rotation": 90, "autoUv": false },
				"south": { "texture": "#1", "uv": [ 1.0, 29.0, 3.0, 31.0 ], "rotation": 270, "autoUv": false },
				"west": { "texture": "#1", "uv": [ 3.0, 29.0, 1.0, 31.0 ], "rotation": 90, "autoUv": false },
				"up": { "texture": "#1", "uv": [ 3.0, 29.0, 1.0, 31.0 ], "rotation": 270, "autoUv": false },
				"down": { "texture": "#1", "uv": [ 3.0, 29.0, 1.0, 31.0 ], "rotation": 270, "autoUv": false }
			}
		},
		{
			"name": "r.065",
			"from": [ 9.2824, 0.9801, 8.9879 ], 
			"to": [ 9.5999, 1.2801, 9.8164 ], 
			"rotationOrigin": [ 9.4411, 1.1301, 9.4022 ],
			"rotationX": 45.00000125223908,
			"faces": {
				"north": { "texture": "#1", "uv": [ 1.0, 29.0, 3.0, 31.0 ], "rotation": 90, "autoUv": false },
				"east": { "texture": "#1", "uv": [ 3.0, 29.0, 1.0, 31.0 ], "rotation": 270, "autoUv": false },
				"south": { "texture": "#1", "uv": [ 1.0, 29.0, 3.0, 31.0 ], "rotation": 90, "autoUv": false },
				"west": { "texture": "#1", "uv": [ 3.0, 29.0, 1.0, 31.0 ], "rotation": 270, "autoUv": false },
				"up": { "texture": "#1", "uv": [ 3.0, 29.0, 1.0, 31.0 ], "rotation": 270, "autoUv": false },
				"down": { "texture": "#1", "uv": [ 3.0, 29.0, 1.0, 31.0 ], "rotation": 270, "autoUv": false }
			}
		},
		{
			"name": "r.066",
			"from": [ 9.2506, -0.9433, 9.5011 ], 
			"to": [ 9.6316, 0.9433, 9.8011 ], 
			"rotationOrigin": [ 9.4411, 0.0, 9.6511 ],
			"rotationX": 6.830189170012751E-6,
			"faces": {
				"north": { "texture": "#1", "uv": [ 3.0, 29.0, 1.0, 31.0 ], "rotation": 90, "autoUv": false },
				"east": { "texture": "#1", "uv": [ 3.0, 29.0, 1.0, 31.0 ], "autoUv": false },
				"south": { "texture": "#1", "uv": [ 3.0, 29.0, 1.0, 31.0 ], "rotation": 270, "autoUv": false },
				"west": { "texture": "#1", "uv": [ 3.0, 29.0, 1.0, 31.0 ], "rotation": 180, "autoUv": false },
				"up": { "texture": "#1", "uv": [ 1.0, 29.0, 3.0, 31.0 ], "rotation": 90, "autoUv": false },
				"down": { "texture": "#1", "uv": [ 1.0, 29.0, 3.0, 31.0 ], "rotation": 270, "autoUv": false }
			}
		},
		{
			"name": "r.067",
			"from": [ 9.2824, -1.5443, 9.2522 ], 
			"to": [ 9.5999, -0.7159, 9.5522 ], 
			"rotationOrigin": [ 9.4411, -1.1301, 9.4022 ],
			"rotationX": 44.999994422049916,
			"faces": {
				"north": { "texture": "#1", "uv": [ 3.0, 29.0, 1.0, 31.0 ], "rotation": 90, "autoUv": false },
				"east": { "texture": "#1", "uv": [ 3.0, 29.0, 1.0, 31.0 ], "rotation": 180, "autoUv": false },
				"south": { "texture": "#1", "uv": [ 3.0, 29.0, 1.0, 31.0 ], "rotation": 270, "autoUv": false },
				"west": { "texture": "#1", "uv": [ 3.0, 29.0, 1.0, 31.0 ], "autoUv": false },
				"up": { "texture": "#1", "uv": [ 1.0, 29.0, 3.0, 31.0 ], "rotation": 270, "autoUv": false },
				"down": { "texture": "#1", "uv": [ 1.0, 29.0, 3.0, 31.0 ], "rotation": 90, "autoUv": false }
			}
		},
		{
			"name": "r.068",
			"from": [ 9.2506, -1.529, 8.7402 ], 
			"to": [ 9.6316, -1.229, 9.2153 ], 
			"rotationOrigin": [ 9.4411, -1.379, 8.9778 ],
			"rotationX": -1.3660378340025502E-5,
			"faces": {
				"north": { "texture": "#1", "uv": [ 1.0, 29.0, 3.0, 31.0 ], "rotation": 90, "autoUv": false },
				"east": { "texture": "#1", "uv": [ 3.0, 29.0, 1.0, 31.0 ], "rotation": 270, "autoUv": false },
				"south": { "texture": "#1", "uv": [ 1.0, 29.0, 3.0, 31.0 ], "rotation": 90, "autoUv": false },
				"west": { "texture": "#1", "uv": [ 3.0, 29.0, 1.0, 31.0 ], "rotation": 270, "autoUv": false },
				"up": { "texture": "#1", "uv": [ 3.0, 29.0, 1.0, 31.0 ], "rotation": 270, "autoUv": false },
				"down": { "texture": "#1", "uv": [ 3.0, 29.0, 1.0, 31.0 ], "rotation": 270, "autoUv": false }
			}
		},
		{
			"name": "r.069",
			"from": [ 9.2824, -1.5443, 8.4034 ], 
			"to": [ 9.5999, -0.7159, 8.7034 ], 
			"rotationOrigin": [ 9.4411, -1.1301, 8.5534 ],
			"rotationX": -44.999994422049916,
			"faces": {
				"north": { "texture": "#1", "uv": [ 3.0, 29.0, 1.0, 31.0 ], "rotation": 90, "autoUv": false },
				"east": { "texture": "#1", "uv": [ 3.0, 29.0, 1.0, 31.0 ], "autoUv": false },
				"south": { "texture": "#1", "uv": [ 3.0, 29.0, 1.0, 31.0 ], "rotation": 270, "autoUv": false },
				"west": { "texture": "#1", "uv": [ 3.0, 29.0, 1.0, 31.0 ], "rotation": 180, "autoUv": false },
				"up": { "texture": "#1", "uv": [ 1.0, 29.0, 3.0, 31.0 ], "rotation": 90, "autoUv": false },
				"down": { "texture": "#1", "uv": [ 1.0, 29.0, 3.0, 31.0 ], "rotation": 270, "autoUv": false }
			}
		},
		{
			"name": "r.070",
			"from": [ 9.2824, 0.9801, 8.1392 ], 
			"to": [ 9.5999, 1.2801, 8.9676 ], 
			"rotationOrigin": [ 9.4411, 1.1301, 8.5534 ],
			"rotationX": -45.00000125223908,
			"faces": {
				"north": { "texture": "#1", "uv": [ 1.0, 29.0, 3.0, 31.0 ], "rotation": 90, "autoUv": false },
				"east": { "texture": "#1", "uv": [ 3.0, 29.0, 1.0, 31.0 ], "rotation": 270, "autoUv": false },
				"south": { "texture": "#1", "uv": [ 1.0, 29.0, 3.0, 31.0 ], "rotation": 90, "autoUv": false },
				"west": { "texture": "#1", "uv": [ 3.0, 29.0, 1.0, 31.0 ], "rotation": 270, "autoUv": false },
				"up": { "texture": "#1", "uv": [ 3.0, 29.0, 1.0, 31.0 ], "rotation": 270, "autoUv": false },
				"down": { "texture": "#1", "uv": [ 3.0, 29.0, 1.0, 31.0 ], "rotation": 270, "autoUv": false }
			}
		},
		{
			"name": "r.071",
			"from": [ 9.2506, -0.9433, 8.1544 ], 
			"to": [ 9.6316, 0.9433, 8.4544 ], 
			"rotationOrigin": [ 9.4411, 0.0, 8.3044 ],
			"rotationX": 6.830189170012751E-6,
			"faces": {
				"north": { "texture": "#1", "uv": [ 3.0, 29.0, 1.0, 31.0 ], "rotation": 90, "autoUv": false },
				"east": { "texture": "#1", "uv": [ 3.0, 29.0, 1.0, 31.0 ], "autoUv": false },
				"south": { "texture": "#1", "uv": [ 3.0, 29.0, 1.0, 31.0 ], "rotation": 270, "autoUv": false },
				"west": { "texture": "#1", "uv": [ 3.0, 29.0, 1.0, 31.0 ], "rotation": 180, "autoUv": false },
				"up": { "texture": "#1", "uv": [ 1.0, 29.0, 3.0, 31.0 ], "rotation": 90, "autoUv": false },
				"down": { "texture": "#1", "uv": [ 1.0, 29.0, 3.0, 31.0 ], "rotation": 270, "autoUv": false }
			}
		},
		{
			"name": "s.048",
			"from": [ 9.9983, -1.3401, 7.9009 ], 
			"to": [ 10.6655, -1.089, 8.0991 ], 
			"rotationOrigin": [ 10.3319, -1.2146, 8.0 ],
			"faces": {
				"north": { "texture": "#1", "uv": [ 3.0, 29.0, 1.0, 31.0 ], "autoUv": false },
				"east": { "texture": "#1", "uv": [ 3.0, 29.0, 1.0, 31.0 ], "autoUv": false },
				"south": { "texture": "#1", "uv": [ 3.0, 29.0, 1.0, 31.0 ], "autoUv": false },
				"west": { "texture": "#1", "uv": [ 3.0, 29.0, 1.0, 31.0 ], "autoUv": false },
				"up": { "texture": "#1", "uv": [ 3.0, 29.0, 1.0, 31.0 ], "rotation": 180, "autoUv": false },
				"down": { "texture": "#1", "uv": [ 3.0, 29.0, 1.0, 31.0 ], "rotation": 180, "autoUv": false }
			}
		},
		{
			"name": "s.049",
			"from": [ 10.504, -1.2014, 7.9031 ], 
			"to": [ 11.0005, -0.9503, 8.0969 ], 
			"rotationOrigin": [ 10.7523, -1.0758, 8.0 ],
			"rotationZ": 45.00000125223908,
			"faces": {
				"north": { "texture": "#1", "uv": [ 3.0, 29.0, 1.0, 31.0 ], "autoUv": false },
				"east": { "texture": "#1", "uv": [ 3.0, 29.0, 1.0, 31.0 ], "autoUv": false },
				"south": { "texture": "#1", "uv": [ 3.0, 29.0, 1.0, 31.0 ], "autoUv": false },
				"west": { "texture": "#1", "uv": [ 3.0, 29.0, 1.0, 31.0 ], "autoUv": false },
				"up": { "texture": "#1", "uv": [ 3.0, 29.0, 1.0, 31.0 ], "rotation": 180, "autoUv": false },
				"down": { "texture": "#1", "uv": [ 3.0, 29.0, 1.0, 31.0 ], "rotation": 180, "autoUv": false }
			}
		},
		{
			"name": "s.051",
			"from": [ 9.3078, -1.0541, 7.8955 ], 
			"to": [ 10.2208, -0.803, 8.1045 ], 
			"rotationOrigin": [ 9.7643, -0.9286, 8.0 ],
			"rotationZ": -45.00000125223908,
			"faces": {
				"north": { "texture": "#1", "uv": [ 3.0, 29.0, 1.0, 31.0 ], "autoUv": false },
				"east": { "texture": "#1", "uv": [ 3.0, 29.0, 1.0, 31.0 ], "autoUv": false },
				"south": { "texture": "#1", "uv": [ 3.0, 29.0, 1.0, 31.0 ], "autoUv": false },
				"west": { "texture": "#1", "uv": [ 3.0, 29.0, 1.0, 31.0 ], "autoUv": false },
				"up": { "texture": "#1", "uv": [ 3.0, 29.0, 1.0, 31.0 ], "rotation": 180, "autoUv": false },
				"down": { "texture": "#1", "uv": [ 3.0, 29.0, 1.0, 31.0 ], "rotation": 180, "autoUv": false }
			}
		},
		{
			"name": "s.053",
			"from": [ 10.7929, -0.8963, 7.9098 ], 
			"to": [ 11.149, -0.6697, 8.0902 ], 
			"rotationOrigin": [ 10.971, -0.783, 8.0 ],
			"rotationZ": 69.99999967119774,
			"faces": {
				"north": { "texture": "#1", "uv": [ 3.0, 29.0, 1.0, 31.0 ], "autoUv": false },
				"east": { "texture": "#1", "uv": [ 3.0, 29.0, 1.0, 31.0 ], "autoUv": false },
				"south": { "texture": "#1", "uv": [ 3.0, 29.0, 1.0, 31.0 ], "autoUv": false },
				"west": { "texture": "#1", "uv": [ 3.0, 29.0, 1.0, 31.0 ], "autoUv": false },
				"up": { "texture": "#1", "uv": [ 3.0, 29.0, 1.0, 31.0 ], "rotation": 180, "autoUv": false },
				"down": { "texture": "#1", "uv": [ 3.0, 29.0, 1.0, 31.0 ], "rotation": 180, "autoUv": false }
			}
		},
		{
			"name": "s.055",
			"from": [ 9.9983, 1.089, 7.9009 ], 
			"to": [ 10.6655, 1.3401, 8.0991 ], 
			"rotationOrigin": [ 10.3319, 1.2146, 8.0 ],
			"faces": {
				"north": { "texture": "#1", "uv": [ 3.0, 29.0, 1.0, 31.0 ], "rotation": 180, "autoUv": false },
				"east": { "texture": "#1", "uv": [ 3.0, 29.0, 1.0, 31.0 ], "rotation": 180, "autoUv": false },
				"south": { "texture": "#1", "uv": [ 3.0, 29.0, 1.0, 31.0 ], "rotation": 180, "autoUv": false },
				"west": { "texture": "#1", "uv": [ 3.0, 29.0, 1.0, 31.0 ], "rotation": 180, "autoUv": false },
				"up": { "texture": "#1", "uv": [ 3.0, 29.0, 1.0, 31.0 ], "rotation": 180, "autoUv": false },
				"down": { "texture": "#1", "uv": [ 3.0, 29.0, 1.0, 31.0 ], "rotation": 180, "autoUv": false }
			}
		},
		{
			"name": "s.056",
			"from": [ 10.504, 0.9503, 7.9031 ], 
			"to": [ 11.0005, 1.2014, 8.0969 ], 
			"rotationOrigin": [ 10.7523, 1.0758, 8.0 ],
			"rotationZ": -45.00000125223908,
			"faces": {
				"north": { "texture": "#1", "uv": [ 3.0, 29.0, 1.0, 31.0 ], "rotation": 180, "autoUv": false },
				"east": { "texture": "#1", "uv": [ 3.0, 29.0, 1.0, 31.0 ], "rotation": 180, "autoUv": false },
				"south": { "texture": "#1", "uv": [ 3.0, 29.0, 1.0, 31.0 ], "rotation": 180, "autoUv": false },
				"west": { "texture": "#1", "uv": [ 3.0, 29.0, 1.0, 31.0 ], "rotation": 180, "autoUv": false },
				"up": { "texture": "#1", "uv": [ 3.0, 29.0, 1.0, 31.0 ], "autoUv": false },
				"down": { "texture": "#1", "uv": [ 3.0, 29.0, 1.0, 31.0 ], "autoUv": false }
			}
		},
		{
			"name": "s.057",
			"from": [ 9.3078, 0.803, 7.8955 ], 
			"to": [ 10.2208, 1.0541, 8.1045 ], 
			"rotationOrigin": [ 9.7643, 0.9286, 8.0 ],
			"rotationZ": 45.00000125223908,
			"faces": {
				"north": { "texture": "#1", "uv": [ 3.0, 29.0, 1.0, 31.0 ], "rotation": 180, "autoUv": false },
				"east": { "texture": "#1", "uv": [ 3.0, 29.0, 1.0, 31.0 ], "rotation": 180, "autoUv": false },
				"south": { "texture": "#1", "uv": [ 3.0, 29.0, 1.0, 31.0 ], "rotation": 180, "autoUv": false },
				"west": { "texture": "#1", "uv": [ 3.0, 29.0, 1.0, 31.0 ], "rotation": 180, "autoUv": false },
				"up": { "texture": "#1", "uv": [ 3.0, 29.0, 1.0, 31.0 ], "autoUv": false },
				"down": { "texture": "#1", "uv": [ 3.0, 29.0, 1.0, 31.0 ], "autoUv": false }
			}
		},
		{
			"name": "s.058",
			"from": [ 10.7929, 0.6697, 7.9098 ], 
			"to": [ 11.149, 0.8963, 8.0902 ], 
			"rotationOrigin": [ 10.971, 0.783, 8.0 ],
			"rotationZ": -69.99999967119774,
			"faces": {
				"north": { "texture": "#1", "uv": [ 3.0, 29.0, 1.0, 31.0 ], "autoUv": false },
				"east": { "texture": "#1", "uv": [ 3.0, 29.0, 1.0, 31.0 ], "autoUv": false },
				"south": { "texture": "#1", "uv": [ 3.0, 29.0, 1.0, 31.0 ], "autoUv": false },
				"west": { "texture": "#1", "uv": [ 3.0, 29.0, 1.0, 31.0 ], "autoUv": false },
				"up": { "texture": "#1", "uv": [ 3.0, 29.0, 1.0, 31.0 ], "autoUv": false },
				"down": { "texture": "#1", "uv": [ 3.0, 29.0, 1.0, 31.0 ], "autoUv": false }
			}
		}
	]}