{
	ingredient: { type: "item", code: "game:ingot-*", name: "metal", allowedVariants: ["iron", "meteoriciron", "steel"] },
	pattern: [[
		"__#_____________",
		"################",
		"################",
		"__#_____________",
	]],
	name: "Zweihander",
	output: { type: "item", code: "xzweihanderhead-{metal}"  }
}